<svg xmlns="http://www.w3.org/2000/svg" xmlns:xlink="http://www.w3.org/1999/xlink" width="0" height="0"
     style="position:absolute">
    <symbol id="logo" viewBox="0 0 1942.1 1314.59">
        <defs>
            <style>.a{fill:#0d4c00;}.b{fill:#1a9900;}</style>
        </defs>
        <path class="a"
              d="M7971.52,5466c-.6-.35-17.46,2-21.11,3.18l-18.78-43.37-16-5.4-28.32-63.1,2,.08a73,73,0,0,0,7.1,3.06c2,.54,6.26-5.13,7-7.08s30-22.43,31.4-22.6,10.78,1,13.15-.35c.67.47.73-2.08,0-2.57-.32-.65-7.06-11.06-6.1-11.63,1.79-1.06,6.43-4.23,8.2-4.22.62,0,13.16,6.93,14,6.65.2-.07,3.58-3.86,3.39-4.61-.34-1.43-9.19-8.94-9.19-10s-.68-5.87-1.91-7.47a20.89,20.89,0,0,1-3.35-7.49c-.51-2.67-4.06-5.17-3.52-6.95a10.93,10.93,0,0,0-.32-8.18c-1.57-3.21-5.3-5.89-8.85-5.91s-7.81-2.89-10.83-3.44-6.94.5-10.49,0-14-14.83-14-14.83l-4.62.16S7836,5150.61,7827.51,5142s-25.75-22.8-35.82-36.45-27.71-60.42-37-72.2-14.83-21.42-18.82-24.37,1.62-4.79,2.44-7.19.3-6.4,4.85-10.11,11.52-9.28,20-8.43,17.32,1.68,21.08-2.57,1.92-11.72,3.27-14.11,4.29-4.79,4.31-8.25.84-7.73,3.25-9.05,2.16-7.2.58-10.67,2.16-3.72,5.36-5,5.9-4.77,2.46-9.59-6.6-14.44-6.57-21.64.6-13.07.6-13.07,17.37-6.84,20.85-7.62,12-2.35,11.48-4.48-10.07-12.59-19.35-23.57-32.63-35.11-64.88-38.73-71.81,11.91-73.7,15.63-.58,10.93-4.61,15.18-5.13,12-5.68,17,.75,10.14-3.29,16.79-4.34,14.11-1.69,18.13,6.88,10.7,8.75,10.71,7.74-1,9,5.11,3.93,13.09,1.26,15.48-3.24,7.45-6.18,8.24-18.95,2.57-24.32,9.21c-3.33,4.12-9.12,8.63-18.77,14.05-10.24,1.39-28.23-10.66-32.84-14-12.1-.78-18.87,9.53-27.38,6.75-1.13-8,3.55-11,2.52-18.88-7.27-13.36-28,.4-37.3-9.33-6.83,1.9-12.66,9.25-21,11.25-9.47,2.29-20.78-.79-24.6,9-.42,8.89,3.92,12.08,5.14,19-5.48,4.95-9.3-1.43-15.37-1.13-4.28,2.9-4.36,9.31-9.09,11.84-2.87-.62-1-6.86-4.84-6.35-8.76,4.34-14.53,11.19-21.28,17.21-.33,3.17,1.75,3.47,1.44,6.66-2.69,8.26-12,12.54-16.82,20.19-3,4.64-5.29,11.75-8.56,17.72-5.15,9.45-11.09,15.93-9.23,28.82-10.88,12.25,6,39.89,4.67,51.3-.41,3.77-3.84,6.58-4.19,9.69-2.52,21.76,10.55,43,23.84,51.95a204.76,204.76,0,0,0-14.38,45.67l4.77,4.82s-5.43,19.18-3.38,35.46,14.25,32.34,33.15,40.17,39.11,18.34,41.76,21.82,23.15,29.19,27.73,38.46,15.88,40.71,16.41,42.31a111.1,111.1,0,0,1,1.81,11.21,3.88,3.88,0,0,0,.3.82c-3.41,1.43-5,54.35,14.41,62.95.94,4.46-26,21.74-38.25,32.6-65.48-64.51-165.45-87.51-255.77-50.76-121.35,49.38-179.84,189.22-129.71,310.27s189.13,178.55,310.14,128.17c120.86-50.33,178.05-189.1,127.73-310-1.7-4.07-5.18-11.48-5.18-11.48l-.09,0-.24-.84-59.57,25.74-8.76,3.65a.58.58,0,0,1,.06.11l-126.12,54.51a29.31,29.31,0,0,0-10.14-11.07,27.18,27.18,0,0,0-26.13-3,25.18,25.18,0,0,0-2.94,1.47c-8.3,4.37-15.61,12.95-14.75,26.41a30,30,0,0,0,.47,3.72l.49,2.1a27,27,0,0,0,.94,2.84l.86,2c3.19,8,15.2,14.07,16.18,14.41,0,.17,4.73,1.88,4.73,1.88l1.06,2.4c1.07,1.21,3.22,2.47,7.54,2.78a55.56,55.56,0,0,1,5.69.61l1.15,1.73,2.46,7.5c1.05,5.81,2.31,12.72,2.6,14,.51,2.24.41,4.9,3,3.48,1.62-.89,5.39-2.72,7.09-3.87l0-2.9c-.36-2.78-.54-7.81-1.65-8.33s-3.18.69-4.45.17l-.91-1.38c0-.12,0-.24,0-.37-.14-2.4-1.26-14.39-2-21.81.53-.4,1-.81,1.53-1.24L7366,5686a18.08,18.08,0,0,0,3.13-6.19l1-2.33a28,28,0,0,0,1-5.91l133.45-44.07a162.88,162.88,0,0,1-94.62,201.05c-81.47,32.6-175.09-6-209.94-86.5a162.9,162.9,0,0,1,86.86-215.13c63-26.24,133.43-9.17,178.74,36.62l62.13-25.87h0l115.54-47.76h23a181.17,181.17,0,0,1,3.46-18.92c1.06-4.3,4.21-23.61,4.41-25l139-48.29,35.26.17-79.6,103.15a166.17,166.17,0,0,1,51.33-15.44l58.2-75.41c3,6.73,5.38,11.44,6.29,12.16a17.94,17.94,0,0,1,5.23,7.17c-1.13,1.42-1.07,2.93.93,4.5,9.57,7.52,9.73,16.58,14.14,24.67s9.38,4.86,12.52,10.11c.84,1.4,10.67,21.2,18.52,39.28l43.5-17.39C7979.25,5484.06,7974.37,5467.73,7971.52,5466Zm-251.18-61.17c7.48-6,21-17.09,26.4-23.08,7.68-8.5,24.9-37.22,20.37-55.38s-12.3-31-29.68-39.62-31.52-25.06-44.65-30.81-50-23.72-52.85-28.36,11.12-18.08,16.12-23,15.77-23.75,16.5-28.72,6.89-26.28,10.1-27.69,7.4,14.62,13.74,25.32,16.21,30.31,20.44,36.73,16.61,23.2,26.51,33.56,62.28,60.42,67.6,66.49c.14.18,17,20,20.15,22.86,3.54,3.22,8.09,16.4,14.13,18.21,1.9.57,5.39,1.32,9.27,2.09.5,1.23,1.07,2.66,1.71,4.23Zm160.31-98.52c-1.07.71-2.49-3.14-3.71-4-7.31-5.15-14.49.18-20.44-.12s-14.55-8.61-15.87-11.28-8.61-2.62-10.73-5.12-36.31-63.13-46.52-85.59-25.05-38.17-37.06-53.88-13.2-28.16-12-28.51,13.43,17.67,20.85,27.13,22.63,26.07,30.42,33.94,13.06,18,18.36,25.69,42.14,35.78,52.24,44.54,19.47,16.82,21.06,19.13,1.93,4.1.83,5,.91,3.2,2.32,4.45,8,10.89,8.29,13.56,7.79,7,7.78,8.57S7881.72,5305.63,7880.65,5306.33Z"
              transform="translate(-7112.45 -4814.34)"/>
        <path class="a"
              d="M8613.79,6006.58q-8.73,0-14.32,3.56t-5.59,10.76a12.5,12.5,0,0,0,5.59,11q5.6,3.81,23.81,8.22t27.45,12.37q9.24,8,9.24,23.46t-11.7,25.17q-11.69,9.66-30.67,9.66-27.8,0-49.31-19.15l12.54-15.08q18,15.59,37.28,15.59,9.66,0,15.34-4.15a13,13,0,0,0,5.67-11,12.38,12.38,0,0,0-5.33-10.67q-5.34-3.82-18.39-6.95a165.71,165.71,0,0,1-19.83-5.76,44.72,44.72,0,0,1-12-6.87q-10.5-8-10.5-24.4T8585,5997q12-8.9,29.57-8.9a71,71,0,0,1,22.54,3.73,59,59,0,0,1,19.32,10.51l-10.68,15.08q-5.25-4.74-14.23-7.8A54.94,54.94,0,0,0,8613.79,6006.58Z"
              transform="translate(-7112.45 -4814.34)"/>
        <path class="a"
              d="M8319.73,6110.12q13.89,0,22-9.49t8.13-25.76v-4.57q-13.38,11.35-28,11.35-21.69,0-34.23-12.88t-12.53-38.63V5991h20v38.3q0,33.55,26.77,33.55,11.52,0,18.9-6.86t9.06-18.73v-46.42h20v84.89q0,25.59-14.07,39.4t-36.09,13.81q-16.09,0-28.3-7.63a43.79,43.79,0,0,1-17.79-22l18.3-8.64a29.4,29.4,0,0,0,10.51,14.4Q8309.56,6110.12,8319.73,6110.12Z"
              transform="translate(-7112.45 -4814.34)"/>
        <path class="a"
              d="M7988,6109.44v-68.12q0-26.08,13.21-39.65t36.86-13.56q23.64,0,36.77,13.39t13.13,38.8v69.14h-20.16v-29.31H8008v29.31Zm20-69v21h59.82v-20.17q0-16.42-8-25.42t-22-9q-14.07,0-21.95,8.64T8008,6040.47Z"
              transform="translate(-7112.45 -4814.34)"/>
        <path class="a"
              d="M7766.36,5991h19.49v73q0,22.2-10.93,34.48t-31.35,12.29q-20.41,0-31.6-15.93-11.69,15.93-31.77,15.93t-31-12.29q-10.94-12.29-10.93-34.48v-73h19.49v73q0,13.22,5.84,20.42t16.44,7.2q10.59,0,16.18-7.2t5.59-20.42l.17-73h20l.17,73q0,13.22,5.59,20.42t16.18,7.2q10.59,0,16.52-7.2t5.93-20.42Z"
              transform="translate(-7112.45 -4814.34)"/>
        <path class="b"
              d="M8787.42,5710.73v199.93h-79.16v-376h79.16v68.55A142.57,142.57,0,0,1,8912.5,5529q63.6,0,102.83,38.87t39.22,112.36v230.39H8975.4V5704.3q0-103.89-86.22-103.88c-27.33,0-51.12,12.67-71.38,30.8S8787.42,5675.87,8787.42,5710.73Z"
              transform="translate(-7112.45 -4814.34)"/>
        <path class="b"
              d="M8479.76,5529q77,0,127.91,42.75t51.59,111.31l.71,1.41-274.21,115.2q36.75,45.22,100,45.23T8590,5795.47l46.64,51.59q-67.14,69.27-158.3,69.25-79.86,0-137.1-53T8284,5723.38q0-60.06,29.68-105.65t73.5-67.14A207.14,207.14,0,0,1,8479.76,5529ZM8360.32,5724.8a89.16,89.16,0,0,0,.71,13.42l208.48-89.75q-24-46.64-85.51-46.64-46.65,0-85.16,32.51T8360.32,5724.8Z"
              transform="translate(-7112.45 -4814.34)"/>
        <path class="b"
              d="M8056.51,5529q77,0,127.91,42.75T8236,5683.1l.71,1.41-274.2,115.2q36.73,45.22,100,45.23t104.24-49.47l46.64,51.59q-67.15,69.27-158.3,69.25-79.87,0-137.11-53t-57.24-139.93q0-60.06,29.68-105.65t73.5-67.14A207.17,207.17,0,0,1,8056.51,5529ZM7937.08,5724.8a90.87,90.87,0,0,0,.7,13.42l208.48-89.75q-24-46.64-85.51-46.64-46.65,0-85.16,32.51T7937.08,5724.8Z"
              transform="translate(-7112.45 -4814.34)"/>
        <path class="b"
              d="M7835.43,5608.9q-58.67,0-88.34,38.16t-29.68,102.47v161.13h-79.15v-376h79.15v75.62a164,164,0,0,1,51.94-58q32.86-22.6,69.61-23.32l.71,79.86Z"
              transform="translate(-7112.45 -4814.34)"/>
    </symbol>
    <symbol id="veloman" viewBox="0 0 211.42 141.19">
        <defs>
            <linearGradient id="a" x1="-658.92" y1="907.21" x2="-658.92" y2="906.21"
                            gradientTransform="matrix(21.22, 86.66, 120.32, -15.28, -94791.36, 71344.43)"
                            gradientUnits="userSpaceOnUse">
                <stop offset="0" stop-color="#1b1918"/>
                <stop offset="1" stop-color="#c5c7c8"/>
            </linearGradient>
        </defs>
        <path d="M206.45,428.05V445H417.86V428.05Z" transform="translate(-206.45 -343.85)" style="fill:#d10015"/>
        <path d="M323.14,352.56c.88-.65-1.94-1.59-1-5.52a4.14,4.14,0,0,1,3.26-2.85c3.3-.3,6.43.72,9.7,1.26,6.05-3.08,7.85-1.12,8.38,1,10.92-1.59,11.62,6.46,7.15,9.52,1.2,2.47,3.51,5,4.64,8.28,4.12,1.9,5.69,5.23,7.77,8.52,8.39-1.33,18-1.62,22,4.64,10.71,16.7-18.83,46.36-39.22,49.53-13,2-22.81-2.76-22.63-14.15.18-10.67,12.08-23.65,20.38-29.48,0-1.21-.18-2.43-.2-3.64-5.43,4.09-10.8,8.19-16.22,12.28-.06,1.16.31,3-.24,3.65-1.69,2-2.59,1.1-5.14,3.55-3.88,4.8-13.23,9-13.22,10.76,0,1.18,2.91-.2,3,.85.06.47-3.4,1.63-3.33,2.93.13,2.79,2.86,1.72,3.84,5.45a6.72,6.72,0,0,1-2.29,2.4c-1.28.25-3.48-.52-4.1,0-.44.58-2,.32-3-.18a3.32,3.32,0,0,1-1.46-2.24,15.36,15.36,0,0,0-5.47-3.07c-5.15,6.84-17.05,16.74-26.05,15.74s-2.81-15,1.36-20.53c6.77-9,17.83-18,29.46-17.34a2,2,0,0,1,1.13-2.53c1.24-.66,1.27-4.35-.52-9.34-1.17-3.27-5.91-4.3-4.66-9.32,1.85-7.38,7.72-7.66,10.25-9.05,3-1.67,6.19-3.57,16.32-11.11Zm12.79-2.38c.26-.47,1.32.92,1.62,2.33.34,1.62,1.58,1.5,2.39,1.76s3.3-2.79,3.93-2.06c.35.41-1.06,1-1.89,1.85a2.82,2.82,0,0,1-2.32,1C337.47,354.77,335.42,351.06,335.93,350.18Zm2.41,6.08c.26-.16.32.15.35.56a2.1,2.1,0,0,0,.46,1,1.54,1.54,0,0,0,.73.58c.19.09.65-.17.62,0-.07.42-1.44.38-1.94-.18S337.71,356.63,338.34,356.26Zm3.8,4.3c1.23-1.16,3.07-1.21,4.65-1.81a18.16,18.16,0,0,1,4.3,5.19c-1.49.81-3.56,1.59-5,2.39-1.43-.95-2.14-2.66-3.84-3.08,0-.85-.69-2.11-.07-2.69Zm4.27,6.41a29,29,0,0,1,5-2.4c.14.22.29.44.44.66-1.51,1.26-2.76,1.83-4.35,3.13-.38-.24-1.19-.67-1.06-1.39Zm9.23-1.15a14.82,14.82,0,0,1,2.2,1.63c-.17.07-.65.72-.77.63-.46-.63-1.55-1.63-1.43-2.26Zm3.21,2.9c.34.41.84.67,1.18,1.08,0,.34,0,1.15,0,1.49A2.67,2.67,0,0,1,358.85,368.72Zm-3.61,1.54c1.54.61,2.74,1.22,2.55,4.29-.83.48-1.35,1.42-4.3-.14-2.9-1.19-1-1.88,1.75-4.15Zm-1.7-1.88c1.3,1.21-.07,2.82-1,3.63-1.38,1.19-2.54.66-2.69.07C349.54,370.87,352.25,369.64,353.54,368.38Zm-.28-.28c.1.22-2.06,1.86-3.12,2.3-.84.35-.7-.06-1.14-.16,1.49-1.06,4-2.63,4.26-2.14ZM321,362.32a37.77,37.77,0,0,1,7.94,8.74c.46-.79-.84-3.05-2.11-4.66l1.53-.08c-.12-.26-.24-.53-.37-.8,2.73.22,3.26,2.43,4.89,3.64.1-.36.61-.41.72-.78,0-.12-.32-.55-.29-.67l1.75.87c-.19-.65.66-.15.46-.8-1.42-2.95-3.29-5.85-8.08-7.5a.32.32,0,0,0,0,.4c1.2.95,2.89,1.72,3.67,3.05a12.09,12.09,0,0,0-3.75-1.66c-.08.34-.15.76-.22,1.1a1.86,1.86,0,0,1,1.21,1.05c0,.13-.31.45-.35.55,0-.56-3.49-2.34-4.26-2.54-.92,0-1.85.13-2.77.09Zm-10.56,8.59c3.19,1.22,3.49,3.89,5.24,5.83.26.3.18-5.5-2.52-4.54-.26-.14-.34-.41-.61-.56C313,370.39,311.24,370.53,310.44,370.91Zm13.77,16c-1,.71-.18,1.4.73,1.53,1.18-.36,7.55-5.14,10.85-8a109.93,109.93,0,0,0-11.58,6.47Zm-6-4.74c-.56.9,2.21,2.06,3.64,2.19,6.09-3.11,12-6.56,18-9.84-.37-.79-1.52-1.56-5.47-2-3.06.51-5.5,3.54-9.83,4.42-1.37.12-2.57,1-3.86,1.53,2.29,2.32-1.35,3.12-2.48,3.71ZM349.12,384a13.35,13.35,0,0,0-.58,7.52c.65.19,1.48.32,2.13.52a30,30,0,0,1-.72-6.6c0-.51-.63-1.07-.83-1.44Zm-5.54,4.9c1.13,1,.88,4,1.32,6l-6.12-1.24A28,28,0,0,1,343.58,388.91Zm-5.53,5.29c1.77.31,4.71.93,6.48,1.25-1.79,0-5.19-.31-7-.34,0-.29.48-.62.51-.91Zm-2.9,3.51c2.64-.16,6.29-.23,8.3-.54.2-.19,1.27-.43,1.3-.76-2.57-.15-5.45-.38-8-.52-.52.68-1.13,1.14-1.57,1.82Zm-4.52,7.13c4.15-2.31,8.44-4.93,12.59-7.12-2.82.32-5.93.5-8.75.82A29.19,29.19,0,0,0,330.63,404.84Zm15.21-7.92c-5.15,3.21-10.4,6.41-15.55,9.62a11.25,11.25,0,0,0-.69,2.33l5.68-2.19c1.68-1.18,5-2.82,6.87-3.83a45.58,45.58,0,0,0,4-5.13c-.09-.27-.19-.53-.29-.8Zm2.46.88c-1.38,1.58-2.82,2.93-4.21,4.51l3.65-1.53,1-2.55c-.17-.22-.29-.21-.46-.43Zm1.62.65,1.31,1.24h-1.89ZM329.27,410a5.11,5.11,0,0,0,0,1.87c1.48-1.1,3.35-2.86,4.83-3.95C332.64,408.59,330.7,409.35,329.27,410Zm-.13,3.16a4.78,4.78,0,0,0,.29,2c1.94-1.09,4.05-2.18,6-3.28.64-1,2.21-2.32,2.84-3.32-.12.66-1.18,1.65-1.31,2.3l7.65-4.37q1.39-2.18,2.77-4.37l-4.66,1.82c-.85,1-2.2,2.17-3,3.14.07-.56,1-1.89,1.11-2.45-1.8,1-3.71,2-5.5,3.06-1.9,1.65-4.24,3.85-6.13,5.51Zm20.71-12.68,1.24-.15c-.34.56-.46.79-.8,1.35-.07-.51-.37-.69-.44-1.2Zm-1.11,3.59c0-.73,0-1.62,0-2.35l1.82.95c-.63.41-1.21,1-1.84,1.4Zm-1.15-.71c-.31.58-.79,1.44-1.11,2,.34-.17.85-.56,1.19-.73C347.64,404.25,347.62,403.78,347.59,403.37Zm-1.29,2.92c.44-.29.87-.14,1.31-.43.07,1.85.09,3.69.16,5.54-1.53,3-3.17,6.23-4.7,9.27a14.48,14.48,0,0,1-8-.42c.34-.7.95-1.35,1.29-2.06-1.38.3-1.38.88-2.55,1.51l-1.73-1.19c1.45-2.09,2.08-3.34,3.54-5.43,2.59-1.6,5.8-3.48,8.4-5.09-1.67,2.42-3.45,4.73-5.17,6.92,2.69-1.46,5.24-5.56,7.45-8.62Zm-16.14,10.1a2.13,2.13,0,0,0,1,1.39c1.24-1.46,2-2.81,3.27-4.26-1.55,1-2.72,1.88-4.27,2.87Zm14,4a11,11,0,0,0,3.57-1c-.05-1.92.13-6.81-.28-5.16-1.11,2-2.18,4.21-3.29,6.2Zm4.46-15.15c.05,1.84,0,4,0,5.86,1.43-2.19,3-4.86,4.47-7.05L351.6,403c-1,.7-2,1.57-3,2.28Zm-.15,7.55c0,2,.06,4.15.06,6.12a10.67,10.67,0,0,0,4.15-2,48.83,48.83,0,0,1,.92-6.58c.27,2.24.27,3.76.54,6a46.79,46.79,0,0,0,4.8-2.92c-.34-1.65-1.56-4.42-1.45-5.24.73,1.33,2,3,2.73,4.35a33.35,33.35,0,0,0,7.72-7.21c-3.11-1.09-4.54-1.91-7.22-3-2.81-.76-4.64,1.41-6.36,1.35-.33.53-.42,2.68-.76,3.21-.16.23-.18-1.62-.41-1.31a83.89,83.89,0,0,0-4.72,7.28Zm9.89-12.89c.37.41,1.38.77,1.75,1.18L372.6,400a34.79,34.79,0,0,0,3-4.15c-3.89,0-7.78-.42-11.66-.42-1.65.87-3.3,2.17-5,3l-.59,1.46Zm4.16,2c3-.47,6.07-.44,9.1-.66-.87,1-1.75,2.5-2.88,3.07Zm6.77-7.43,7.65-2c-.49.72-1,1.45-1.46,2.18Zm-2.7-1.39,4.89-3.2,7-1.61-.87,2.26Zm11.89-8.67c-1.16,1-3,2.31-4.16,3.28l4.59-1.24A3,3,0,0,0,378.49,384.46ZM355,394.52c.07.82.14,1.65.22,2.47l2-1.24,1.16,1.53,4.23-2.4-3.57-.44-1.24.88-.15-.95-2.69.15Zm-.22-2.41c.12.51,0,1,.11,1.53l4.84-.36,9.77-3.86c2.72-2,5.89-4,8.61-6a4.15,4.15,0,0,0-.85-1.72c-2.31,1.17-4.87,2.39-7.18,3.55l-8.31,6.2c.68-1.34,2.12-2.67,2.8-4a50.92,50.92,0,0,0-9.79,4.66Zm6.7,1.46,2.33.14,3.14-2.11Zm13.88-13.81c-1,.83-2.26,2.05-3.28,2.87,1.26-.58,3.36-1.41,4.37-2a5.67,5.67,0,0,0-1.09-.88Zm-3.1-1.42a8.55,8.55,0,0,1,1.61.58c-2.26,2-3.73,4.38-7,6.2a53.6,53.6,0,0,1-6,2.71C364.64,384.36,368.43,381.48,372.21,378.34Zm-3.06-.65a1.71,1.71,0,0,1,1.15.23c-4.06,4.5-10,8.87-15.28,13.1-1-.67,3.86-4.44,3.86-5.25-.32-.33-1.9,1-4.2,3.18,0-.8.07-2.08.07-2.88l2.36-1c-.34-.37-.07-.87-.41-1.23.36-.42.25-.69.62-1.11-.63.22-.79.31-1.42.52-.66-1.82.83-1.77,1.67-2,1.41-.45,1.23,1.48,4.45.08.6-.27,1.15,1.24,1.74.94a12.87,12.87,0,0,0,5.39-4.51Zm-73.33,22.36c-.94.94-1.26,2-2.2,3,1.38-.66,2.85-1.39,4.23-2C298.65,400.39,297.74,398.86,295.82,400.05Zm2.65,1.5c-4.8,2.11-4.48,3.28-6,4.46,1.39-.29,2.16.05,3.54-.24.16-.89,3.27-3.33,2.49-4.22Zm-4,8.07c-1.78,1.41-4.56,2.44-5.56,3.07,1,.46,1.83,1,4.31-.47s2.51-2.35,1.25-2.6Zm-11.07,6.52c.53,0,1,.08,1.57.08.52.18.42,1,.63,1.49,2.73-2.08,4.3-2.6,4.78-2-4.77,5.45-12.94,11.05-16,11.69,1.25-1.62,3.13-3.4,4.39-5a64.56,64.56,0,0,0-6,5.14,2.11,2.11,0,0,1-1.9.12c3.33-3.82,7.5-8,10.83-11.78-.45,1.44-.19,3.27-.64,4.71,1-1.31,1.34-3.08,2.36-4.39Zm-9.21,1.76c.09,1.38,1.23,1.77,1.68,2.09-1.75,2.17-4.05,4.88-5.8,7.05-2.69-1.56-.49-7.32,1.39-10.35,1.31-.73,2-.63,3.47-1.4-1-.25-1.31.07-2.59-.41a9.05,9.05,0,0,1,2.59-3.37c.81.61,2.25,1.75,3.06,2.35-.87.92-3.2,1.45-3.8,4Zm19.33-14.07c-.7.49-1.57,1.92-2.27,2.42l-3.06-.08C289.75,405.7,292,404.3,293.53,403.83Zm-.95,5.17a27.57,27.57,0,0,1-6.18,2.74l4.16-3.69C291.77,408,293.15,408.53,292.58,409Zm-3.28-.71L286.16,411a4,4,0,0,1,1.17-2.43C288,407.85,288.62,408.34,289.3,408.29Zm-4.63-4.71c-1,.32-2.21,2.19-2.82,2.82.61.05,2.06-.36,2.66-.31a3.9,3.9,0,0,0,1.88-2c.14-.78-1.22-.8-1.72-.47Zm8.56-3.14c1.54-.32-.1,2.15-.89,3.14-1,.21-3.17,1.27-4.22,1.48C290,403.47,291.39,401.65,293.23,400.44Zm-5.43,1.93-.54,2.25a28.89,28.89,0,0,0,4.26-3.88A7,7,0,0,0,287.8,402.37Z"
              transform="translate(-206.45 -343.85)" style="fill:url(#a)"/>
        <path d="M215.29,436l1.55-.36,3.22,1,.24,3.22h4.78l-4.66-3.58.84-.6,2.5-.59,2,.95,1.67-.83h1.2l1.43,1.43-.6,1-1.79.48-1.67-.95-1.19.59,3.22,1.43,2.27-.95,1.43-2.63h1.43l.24-.59h1.08l1.91,1.67,1.67-1.55,1.31.24,2.74,3.1,1-.24v-.95L241,435.51l4.06.24,1.91,1.32-1.2,1.55-.35,5.13-1,1.19-21.12-.24L221,447.21v1.31l1.79-1.55h.84l-.6,4.18,1.43.36-.36,1.43h-1.07l-.36,2.39,3.22.12-.36,1.43,1.08.24,2.86-2.27h.84l.48,1.19,3.34,1.79-2.51,3.46-2.39-.35V462l3.47-.12,3-4.3L232,455.8l-.36-1.07,2.63.12v-.24h3.82l1.07,1.19-.95,2.39-2.15,1.07.59,2.27-1,2.27-12.65-.24L220.66,468l.12,1.43-2.39-1.08-.35-4.65,1.55-5.13,2.15-1.91-3.58-3.34-1.68,1.19.12,2.15h1.79l-1.79,11-4,5.25,2.26,2L213,478.24l.36,1.07,4.54-7.51-1.2.23-1.07,1.68-2-.6v-1l3.1-3.58,2.27,1.55,2.27.24-.48,1.55-1.67-.47v2.86l1.91,1.55,3.82.12,1.19,1.2h1.43l3.23-1.2,3.94.24.11.84-.71,4.77,1.43.24V479l1.55-3,2.87.36-.36,2.39-1.2.36,1.56,1.55L237.37,485H226l2.39-1.79h-2.27L220.54,485h-1.91l-1.67-1-.48,1-8.11-.12a3,3,0,0,0-.24-.59l-.72-.84,3.7-21.72.72,3.22,2.15,1.44v-1.2l-1.43-2.5.47-2.63h3.35l-3.11-2.63-1.79,1.32L214,444.47h1v-1.91l5.25,2.26.12-3.1L219,443.27l-2.74-2.39-.48.84-1.91-2.86h1.19l.24-2.87Zm8.59,26.5,2.15-1.08,1.29,0L226.17,463l-1.42.15Zm-6.16-17.61.92,1.41-.12,2.74-1.34.42.54-4.57Zm3.66,33.6,2.74-.12,2.15,1.55h-3.34l-1.55-1.43Zm-3.46.95,1.43-1.31v1.67Zm-5.49,1.79,1.07,1.2v1.91l-1.13-.75.06-2.36Zm15.12-1.61,1.88-.71,2.5.9-3,.28Zm2.78-37.89,1.67-1.55h2L233,441.24l-2.62.48Zm-9,17.54L220,461.53l.23,2.51,1.08-1.55.12-3.23ZM253,435.87l6.69,21.84L251,470.6l1.43.84-1.08,1.19L247,476.21l-3.94,6.21-.24,2.15,1.19.23h9.07l.84-.71,2.27-3.82,1.43-.84-.6-1.91,1.67-.23.72-1.68-1.67-.11-.84-1.08,2.63-.95,2.86-7-1.55-2.27-.36-1.55L262,464l4.77-7.52,1.31-1.19-1.31,3.7,1.67-.24-.36,1.79-2.27.83-4.29,11.22,2.86-3,1.32,1.91-1.2.24,4.66,12.41,1.31.59,10-.23,1.08-1.44-3.46-9.78-2.75-1.2.48,2.63-1.91-1.07-.84,4.05-1.67-2.15,1.44-3.34-2.51-5.13,4.54,2.39v-2.39l-1.44-2.86.6-.84h1.43l-1.91-2.39v-2.74l2.51-4.65,10.5.11.6,1-1,4.61,3,0,2.79-1.74-.4,2,3.13-.14-1.32,6.45.12,3.94h1.08l1.07-4.66h.72l.24-4.06,3.93-4.29.36,1.07-3.58,3.7-.36,3.82.6,1.08,1.79-2,.24,1.43,2-1-1.31-.24,1-1.67.72-3.58,4.41.12.48-1.31.84,1.31,2.26-.12.6-3.46-.24-.95,1-1.55h1.43l-3.46,21.12.47,1.55-.23.72,2.86,2,.24-3.46.71,2.14-.47,2.87h-.6l-2-2.27-1.31.24-1.43,5.85.59.36,6.09-.36-.95-1.79,1.91-.48.23-6.21,1.32-.59-.72-1.91.6-1.91,2.38.24,1.2,2,2.62.59.72,1-3-.12,3.34,9.19h3.46l-.84-1.2V481.7h1l1.31,3,3.58-.12-2.39-2.51.84-3-2.86-1.91,1.31-1-2.27-3.34.48-2.75,3.22-1.43,1.67-2.5.12-.84,1.31-.83-.95-1.32,1.67-.12-.72-3.34-1.55-1.31,1.55-1.19L330,454h-1.79v3.34H330l-.24,2.63h.72v1.79l-.48.6.36,1.55,1-.84v1.08L330,465.71l-1.55.48,1.08-1.67-.24-3.58-.36-1.44-.12-1.07h-1.07l-.84-4.54h-1.55l.6-.71h13.6l-.71.71-.12,2.39,2.5,1.43,1.67-.24-1.31,1.44-1.43-1-1-.12-1.31,1.55-1.07,7.4,1.91.6.59,1.31-1.79-.83-.36,1.19,1.56,3.46-.72-.12-1.55-2.5L333.8,484l.84.48,8.47-.24,3.7-1.43-.48,1.43,7.16-.12-.35-1.08,1.19-.95v-1.55l-1.43,1.19,2.39-3.46h-2.87l-1.19,4.06-.6-.12.6-3.94-2.51.24-2.27.6-1.79-.72-2.5-.24-.6-2,.48-.71.83.24V475l-2.5-1-2,1.67.24,1.56,1.67-1.32v2.15l-3.46,2.75,1.43-2.39-1-2.75,2-2.26,2-7.16-1.31-.12.36-2.27,2.5,2.27-.47.59-1.32,1.44-.71,4.17L342,474.3h.59l.36-3,1.79-.72.84-1.91.48,1.08-.6.47.36.72,6.44-.36.6-1.91-.72-1.31,1.31-.24.72-2.27-4.65.24,1.91,1.67-.84,1.67-1.43,1.32H348l1.2-1,1.19-1.79-1.91-2.15h-1l-1,1.67-.95-1H344v-1.43l.71-1-.59-.24v-2.62h-.84l.72-1.19,14-.12L359,453.3h3.94l-5.25,29.6.6,1.19h6.44l.12-1.43H363.4l2.51-4.66,1.67-11.22,3.34,8.72h1.55l.12,1.07h.84l2.74-5.37,2.51-1.31-.6-2.39,2.51-1,1.07,3.47-.24,4.89L380.11,470l-2.39,12.41.72,1.91,6.32-.36.48-3-.83-.24v-3.46l2.14-3.58,1-4.78h-1l-.47,1.79-.84-2.15,1.79-3.34,1.08.84.11-1.44-.71-1.07,2.27-6.56.59-3.7h3.7l-.59,2.5,3.1,1.91.48-1.07-.36,2.62-2.39-1.91-1.19,1.32L391.57,467h1.31l1.67.84-2.39.12.48,3.46-.6.12-1-2-2.39,13.13.48,1.31,10.14-.24.84-1.19,1.07.12L402,484h6l1.43-2.87-.36-1.31L410.3,478h-2.74l-1.08,1.91-.11,2.87-1-2.39,1-2.39h-3.82l-1.2,1.08L400,478.6l-.12-.6h-3.7v-2.27l1.55-.59v-.36L395,473.59l-2.39,2.86h-.48l1.79-3.82,2.27-6.32-1.54-.76.21-1.69.63-.21,2.11,2-.21,1-1.16,1-.84,4.63,2,1.9.31-2.84,1.16-.95.74-.21.42-1.37h1.37l-.53.84-.63.74.31.21,6.84-.42V468l-.31-.11v-.73l1.26-.21.63-2.11h-4.63l.21.53,2.21,1.05-1.89,2.84h-2.42l2-.63,1.15-2.1-2.42-1.58-1.68.84H401l-.42-.53h-1.15l-.53-.73.95-2.11H399l.31-2.31h-1.16v-.95l1.16-.63,13.15.21.53-4.11.53-.73-.74-.95-.32-18.41-136.9.73L273.14,439h-1.05l.1,1.26-2.21,1.9.32,2,2,1.26-.21,1.05-4.74.74.64-2.95-1.27-4.1-2.94,4-.95.73L260.62,449l-1.05.1,2.42-5.36,1.15-.32,3.16-4.84-.42-2.74-.84-.42v-.52h-2.11l-.52.31v2.32l-.63.42-.42-2.74-1.9-.1v4.31l-1,.84-.11-.94.21-1.9-1.36-1.05H256l-1.16-.63-1.83.1Zm3.05,3.63-.46-1.59-.45,1.7.91,2.73V439.5Zm6.13,10.55.9-1.24.23,1.81-.34,2.05h-.79v-2.62Zm.11,6.47h2.16l-.34.8-1.93.23.11-1Zm-3.52,8.29-.23,1.82-1.81,1,.11-1Zm-1.48,5.45-1.81,1.25-.68,2.27,1.59-1.14ZM253.44,479l-1,1.59-1.7,1.36-.79-.68,2.61-1.7.91-.57Zm-4.89-3.06.8.45.9,2.08-.36,1-1.15-1Zm29.63-35.42-1.59,1.25-.23,1.59,1.14-.68Zm4.77-.8-.91,1.71-1.82.91.69.68,1.36-.8v-1H283v-1.48Zm-4.32-2.27-1.47.91.79,1.82ZM267.81,473l-.41,1,.6.78.69-1.24Zm2.17,2.22.69.78,0,1.85-.74-.19-.28-.83.37-1.61Zm1.84,4.1,1.34.74.6,2.17-.55.6-1.11-.92-.64-.19.36-2.4Zm4.25-1.06,1.61-.6-.51.79Zm.23,3.32,1-.64.55,1.43h-1.57l.05-.79Zm16-9.72,2.52-1.64.07,1-.07,5-1.91,1.84-.06,2.45h-2.05l1.5-8.65Zm-2,11.51.62,1,5.93.06.47-1.15,1-4.09-.62-.82.07-2.93,1,.34.82-4.29h-1.09l-.34-1.16,2.32-1.84-.55-.89h-1.09l.75-1.16-1.16-.13-1.5,1.29-.95,1.71.54.41-1.09,1.09v7.22l-1.9-.07V481l-.48.27h-2.25l-.55,2.18Zm-.95-28.55,1.7,1.09,2.8-1.7.95.75h-1l-2.59,1.91h-1.09l-.82-.82.07-1.23Zm4.36,3.14-.54-1.84,1-1.09,2.11,1-1.84.07Zm4.43-4.23,1-.34.95.41L298.67,455l-.62-.14v-.13Zm4.15,2,.85.39.93-.69,1.5,1.59.76,0-2-2.68Zm-32.94-5,5-5.32,1.09.35.45,1.39.15,2.43-3.33,4.08-.5,2.93-.84.5-.05,1-2.14-.2,1.74-1.79-.25-2.43,4.23-4.52-.15-1.59-.55-.15-3.63,3.38-1.19-.1Zm43.46,13.93-.08,2.86h.79l2.47-3.18-.87.08-1.67,2.07-.64-1.83Zm0,4.06-.24,2.63.32,2.78.79-1.59-.23-2.39,1.91-1-1.28-.16.48-1.28-1.75,1Zm-.72-6.37,1.12-.32,1.27.72-.72.47-1.67-.87Zm1.67-6.85-.87,1.67.95,2.15.08,2.23,1.36.48.79-2.39,1,.08,1.51-.87.8.39L318,461.28l.56.88-1.27,1.59.4,1.36,1,.08-.08,1.11,2.71,1.27-.8-1.43-.24-.64h2.71l.8.8,2,1.12-.64,1.35.4.72.95-3,1.12-2H327l-1,2-.88-.24L324,465.11l1.43-1.52,1-.16.64.24.4-.48-1.43-.31.24-1.36-1.2-1.83-1.75-.4-.56-.08.88-.87,1.43-.56.56-.88-1.51.72-1.6.08-.79,1.59-1.36-.16-1-1h-2.31l-.16-1.91-.72-.08.48,2.39-1.91,2-.88-3.27-.16-1.75Zm5.58-.24-.32,1.59,1.67.72-.32-.72Zm-1.44-1.91,3.19-.87-.56,1,.64,1.12-2.23-.32-1-1Zm3.35,1.83.87,1,.16-1Zm2,15.37-.8.64.48,1.35,1.67.64,1.36-2.15-.32,2.31-1.28,1.43-1.19-1-2.07-2.15-.32-.64Zm3.66,9.87-.24-3.1-.95,2.55.24,1.83Zm16.72-.63,2.55.79-2.39.32-1.43-.95Zm3.75.48,2,.15-2.07.48.08-.63Zm-6.69-26.84.16.72,1.51.16.08,1.83h2.71v-.48l-1.52-.16-.63-1.35-.4-.8Zm6,1.51,1.83-.79-1.27-1.28,2.47.56-.56,1.2-2.47.31Zm4.7-1.51,1-.32.72,1.52L352,454l-1.15.15.45-.74Zm3.42-.27,1.74.93.32,1.3H356l-1.25-1.59,0-.65Zm-5.94,3.56,1.06-.79,1.39.4-2,.86-.47-.47Zm14.26,1.15,1.49-.64.21,4.32-.5,1.21-.07,5.3-1.27,1.21-.07,1.84-.64,1.77.57,1.13.07-1.13,1-2.41V470l2.12-3,1.77-3.75.57-.21,1.27.71-.14-1.13-1.13-.93.42-1.13,1.28-1.77-.29-1.2-1.06,1-.92,2.19v1.28l-2.48,3.82-.07-2.26.57-2-.43-4.53.43-1.13-1.49-.14-1.27,1.2.07.78Zm-2.41,16.35,1.13.85-.14,4.67.29,2.48h-.64l-.21-1.84-1-.85L361,476l-.64-1.41.28-.43Zm6.58-21-.77,2.48,2.12-2,1.13.35,1.7,2-.35,1,.78,1.28-.64,1.13,1.7.64-.07,1.55-.5.5,1.2,1.84-.07,2.83.85,1.06v-3.61l8.07-10.4,1.06.42,3.05-1Zm16.57,5.73.49.78-.42.64-1.42-1.7.43-1.63Zm-1.7,5.88-.92,1.77.85.42,1.34,3.12,1.28.21-2.55-5.52Zm-5.81,3.61.64,1.34-4.17,3.4,1.77-3.26Zm-12.67-4,.15,2.55-1.14-1.06,1-1.49Zm19.54,15.08-.85,1.06-1.27.78.14,1.84,2.19-2.69-.21-1Zm15-.23,2.55.79-2.39.32-1.44-.95,1.28-.16Zm3.74.48,2,.16-2.07.47.08-.63Zm-6.69-26.84.16.72,1.51.16.08,1.83h2.71v-.48l-1.51-.16-.64-1.35-.4-.8-1.91.08Zm6,1.51,1.84-.79-1.28-1.28,2.47.56-.56,1.2-2.47.31Zm4.7-1.51,1-.32.71,1.52-1-.6-1.16.14Zm3.42-.27,1.74.93.32,1.3h-.78l-1.25-1.59,0-.65Zm-5.93,3.57,1.06-.8,1.39.4-2,.86-.46-.46Zm-8.95,19.65.68,1.2-2.37,2.85-.58-.78Z"
              transform="translate(-206.45 -343.85)" style="fill:#1b1918"/>
        <path d="M279.87,445.26,283,452.6l7.67-.23,5.66-9.71-6.5.57-2.48,6.92c-.79-3.45-2-10.48-6.07-5l-1.43.14Zm18.81-2.73,13.15-.83-.17,1.16-6.66.25-.06,2.65,6.39-.25v1.16l-6.49.08-.34,3.64L311,450l-.17.83-12.89.77.74-9.05Zm15.59-1.22-.68,9.17,15.29-.93.32-3.91-6.4.94-.17,2.68-2.58.18.86-8.09-6.64,0Zm20.37-1,10.18-.37a2.07,2.07,0,0,1,2.21,2.37l-.45,4a3,3,0,0,1-2.78,2.55l-10.18.38a2.08,2.08,0,0,1-2.21-2.37l.46-4a3,3,0,0,1,2.77-2.56Zm4.68.73h.73a.67.67,0,0,1,.73.7l-.51,5.74a.82.82,0,0,1-.85.68h-.73a.68.68,0,0,1-.73-.71l.51-5.73A.82.82,0,0,1,339.32,441.06Zm10.24,7.21,1.13-9,8.46-.21,2.42,6.26,4.74-6.86,8-.65-.75,9.06-6.35.35.32-5.9-4.42,6.32-5.33.2-2.8-5.45-1.08,5.78Zm31.13-11.07,9.75-.46,2.31,8.78-6.51.4.05-2.36-3.18.06L382,446.4l-6.2,0Zm4.68,1,.87,4.57-2.64-.09,1.34-4.43.43-.05Zm10.83-1.9-.86,9.11,4.41-.26.49-4.61,4.95,4.31,5.33-.31.76-8.95h-4.36l-.17,4.72-4.9-4.52-5.65.51Z"
              transform="translate(-206.45 -343.85)" style="fill:#fff"/>
    </symbol>
    <symbol id="sportland" viewBox="0 0 665.24 226.26">
        <path d="M760.4,314.78v6.44h-.59v-3.88c0-.69,0-1.36.08-2-.13.38-.28.79-.44,1.16l-1.89,4.75H757l-1.92-4.69c-.17-.39-.3-.79-.43-1.19.05.67.07,1.31.07,2v3.9h-.59v-6.44H755l1.87,4.6c.16.4.3.8.44,1.2.14-.39.27-.8.42-1.18l1.85-4.62Z"
              transform="translate(-95.16 -182.17)" style="fill:#d24a43"/>
        <polygon
                points="656.14 133.14 656.14 139.05 655.53 139.05 655.53 133.14 653.26 133.14 653.26 132.62 658.4 132.62 658.4 133.14 656.14 133.14"
                style="fill:#d24a43"/>
        <path d="M746.36,321.22l-7.26,41.11h5.3l-4.4,25H725.18l2.34-13.25H696.61l-2.32,13.25H679.45l4.4-25h3.88a90.33,90.33,0,0,0,9-18.21,128.5,128.5,0,0,0,6.21-22.9Zm-23.93,41.11,5.19-29.42H716a118.43,118.43,0,0,1-5.63,16.34,83,83,0,0,1-7,13.08Z"
              transform="translate(-95.16 -182.17)" style="fill:#d24a43"/>
        <path d="M733.28,408.11H728.6l2.57-13.94h3.46a4.7,4.7,0,0,1,3.22.9,3,3,0,0,1,.77,2.87,3.74,3.74,0,0,1-2.06,2.72,2.68,2.68,0,0,1,1.65.88,3.11,3.11,0,0,1,.51,2.61A4.53,4.53,0,0,1,737,407,5.93,5.93,0,0,1,733.28,408.11Zm.21-11.72-.67,3.56h.77a2.27,2.27,0,0,0,2.45-1.82c.23-1.27-.66-1.74-1.76-1.74Zm-.6,9.5a3.94,3.94,0,0,0,1.93-.38A2.18,2.18,0,0,0,736,403.9a1.36,1.36,0,0,0-.71-1.57,3.94,3.94,0,0,0-1.82-.29h-1l-.72,3.85Z"
              transform="translate(-95.16 -182.17)" style="fill:#d24a43"/>
        <polygon points="628.05 208.06 627.59 210.52 624.86 210.52 625.32 208.06 628.05 208.06" style="fill:#d24a43"/>
        <polygon points="627.25 212 624.67 225.94 621.95 225.94 624.53 212 627.25 212" style="fill:#d24a43"/>
        <path d="M703.33,405.76c2.18,0,2.79-1,2.93-1.81s-.13-1.91-2.2-1.91h-1.33l-.7,3.72Zm-.17-6.06h1.89a4.47,4.47,0,0,1,3.27,1.12,3.46,3.46,0,0,1,.74,3.09,5.29,5.29,0,0,1-1.23,2.51,5.52,5.52,0,0,1-4.32,1.69H698.9l2.56-13.94h8.07l-.43,2.35h-5.35Z"
              transform="translate(-95.16 -182.17)" style="fill:#d24a43"/>
        <polygon
                points="596.74 212 587.71 225.94 584.75 225.94 587.42 222.05 584.09 212 587.27 212 589.5 219.02 593.78 212 596.74 212"
                style="fill:#d24a43"/>
        <polygon
                points="588.78 139.05 579.44 192.02 562.76 192.02 566.78 169.24 549.68 169.24 545.67 192.02 529 192.02 538.34 139.05 555.02 139.05 551.78 157.37 568.88 157.37 572.11 139.05 588.78 139.05"
                style="fill:#d24a43"/>
        <path d="M660.21,394.17h9.48l-2.58,13.94h-2.72l2.15-11.59h-4l-1.15,6.17c-.27,1.44-.59,3.35-2.37,4.62a4.78,4.78,0,0,1-3,.92,4.58,4.58,0,0,1-1.12-.12l.44-2.35a2.46,2.46,0,0,0,.74.13,2,2,0,0,0,1.35-.5c.85-.71,1-1.9,1.28-3.24Z"
              transform="translate(-95.16 -182.17)" style="fill:#d24a43"/>
        <polygon
                points="544.11 217.89 550.32 212 553.75 212 546.67 218.43 551.48 225.94 547.89 225.94 544.09 219.7 543.73 219.99 542.62 225.94 539.9 225.94 542.5 212 545.2 212 544.11 217.89"
                style="fill:#d24a43"/>
        <path d="M616.34,327.06q5.89,7.54,3.59,20.68a45.36,45.36,0,0,1-1,4.53l-37.7,0a19.56,19.56,0,0,0,0,3.43,12.13,12.13,0,0,0,1.26,4.79,6,6,0,0,0,2.85,2.67,10,10,0,0,0,4.27.86,11.65,11.65,0,0,0,4.22-.86,9.48,9.48,0,0,0,3.77-2.53,31.88,31.88,0,0,0,2-2.8l15.86,2.75a43.47,43.47,0,0,1-6.35,7.77c-5.73,5-12.94,7.54-21.74,7.54s-15.06-2.54-19-7.54-5.17-11.89-3.64-20.59,5.2-15.72,10.92-20.7,12.95-7.49,21.68-7.49S612.39,322.06,616.34,327.06Zm-33,14.4h20.08c0-.53,0-1,0-1.49a12.16,12.16,0,0,0-1.28-5,6.2,6.2,0,0,0-2.86-2.75,9.46,9.46,0,0,0-4.09-.75,12.08,12.08,0,0,0-4.17.65,10,10,0,0,0-3.8,2.64,18,18,0,0,0-3.18,5C583.81,340.29,583.58,340.85,583.38,341.46Z"
              transform="translate(-95.16 -182.17)" style="fill:#d24a43"/>
        <path d="M605.58,395.69a8.56,8.56,0,0,1,5.47-1.85,6.33,6.33,0,0,1,3.25.87l-.58,3.17a3.63,3.63,0,0,0-3.08-1.53,5.82,5.82,0,0,0-5.5,4.84A3.75,3.75,0,0,0,609,406a5.16,5.16,0,0,0,3.54-1.52l-.59,3.17a8.27,8.27,0,0,1-3.59.82,5.65,5.65,0,0,1-4.73-2,5.91,5.91,0,0,1-1.26-5.32A9.16,9.16,0,0,1,605.58,395.69Z"
              transform="translate(-95.16 -182.17)" style="fill:#d24a43"/>
        <polygon
                points="498.57 212 498.15 214.35 493.12 214.35 492.55 217.46 497.35 217.46 496.93 219.8 492.12 219.8 491.42 223.59 496.43 223.59 496 225.94 488.27 225.94 490.85 212 498.57 212"
                style="fill:#d24a43"/>
        <polygon
                points="470.15 217.4 476.02 217.4 477.02 212 479.73 212 477.16 225.94 474.45 225.94 475.59 219.74 469.7 219.74 468.56 225.94 465.84 225.94 468.42 212 471.14 212 470.15 217.4"
                style="fill:#d24a43"/>
        <path d="M564.6,303.88l-12.4,70.31H534.42l10-56.86H526.61q-.93,4.08-1.71,7.65c-.53,2.39-1,4.63-1.56,6.78a150.4,150.4,0,0,1-4.51,15.9,80.79,80.79,0,0,1-4.63,10.92,44.31,44.31,0,0,1-4.64,7.14,33.05,33.05,0,0,1-4,4.11,19.69,19.69,0,0,1-6.34,3.56,20.54,20.54,0,0,1-7,1.31c-1.47,0-3.11-.07-4.85-.2s-2.88-.21-3.34-.25l2.73-15.52h.67c.31,0,.61,0,.92.08a10.77,10.77,0,0,0,1.15.06,18,18,0,0,0,3.1-.38,7,7,0,0,0,3-1.28c2.65-2.15,4.8-5.48,6.44-9.94a174,174,0,0,0,5.35-19.47c.87-3.88,1.62-7.36,2.19-10.46s1.51-7.55,2.75-13.46Z"
              transform="translate(-95.16 -182.17)" style="fill:#d24a43"/>
        <polygon
                points="458.78 212 458.34 214.35 455.21 214.35 453.06 225.94 450.36 225.94 452.5 214.35 449.36 214.35 449.79 212 458.78 212"
                style="fill:#d24a43"/>
        <polygon points="440.94 208.06 440.49 210.52 437.76 210.52 438.21 208.06 440.94 208.06" style="fill:#d24a43"/>
        <polygon points="440.2 212 437.62 225.94 434.9 225.94 437.47 212 440.2 212" style="fill:#d24a43"/>
        <path d="M515.23,397.59h-.41a3.57,3.57,0,0,0-3.76,3.13,2.47,2.47,0,0,0,.66,2.52,2.59,2.59,0,0,0,1.93.61h.43Zm5.1.57a3.12,3.12,0,0,0-2-.57H518l-1.17,6.26h.43a3.56,3.56,0,0,0,2.17-.61,3.76,3.76,0,0,0,1.58-2.52A2.64,2.64,0,0,0,520.33,398.16Zm-7.07,8a5.93,5.93,0,0,1-3.74-1.06c-.87-.68-1.71-2-1.26-4.4a6.4,6.4,0,0,1,2.91-4.44,7.87,7.87,0,0,1,4.12-1h.37l.31-1.65h2.72l-.31,1.65h.36a6.06,6.06,0,0,1,3.75,1c.88.72,1.71,2,1.27,4.44a6.29,6.29,0,0,1-2.91,4.4,7.63,7.63,0,0,1-4.13,1.06h-.37l-.36,1.93h-2.7l.34-1.93Z"
              transform="translate(-95.16 -182.17)" style="fill:#d24a43"/>
        <polygon
                points="398.61 139.05 396.58 150.58 379.98 150.58 372.68 192.02 355.99 192.02 363.3 150.58 346.72 150.58 348.75 139.05 398.61 139.05"
                style="fill:#d24a43"/>
        <path d="M482.47,405h-5.21l-1.72,3.14h-3.27l8-14h3.17l2.65,14H483Zm-.3-2.26-.88-5.31-2.88,5.31Z"
              transform="translate(-95.16 -182.17)" style="fill:#d24a43"/>
        <polygon
                points="373.77 211.96 367.54 217.79 371.52 225.98 367.94 225.98 365.24 219.93 363.34 221.73 362.52 225.98 359.55 225.98 360.4 221.55 359.26 219.9 354.35 225.98 350.47 225.98 357.58 217.51 353.7 211.96 357.29 211.96 361.12 217.75 362.21 211.96 365.19 211.96 364.13 217.55 369.88 211.96 373.77 211.96"
                style="fill:#d24a43"/>
        <polygon
                points="346.06 212 345.62 214.35 340.62 214.35 340.04 217.46 344.85 217.46 344.42 219.8 339.61 219.8 338.9 223.59 343.91 223.59 343.48 225.94 335.76 225.94 338.34 212 346.06 212"
                style="fill:#d24a43"/>
        <path d="M434.59,327q3.82,7.35,1.59,19.93Q433.92,359.7,426,367.49t-17.41,7.79a22.32,22.32,0,0,1-6.79-.89,26.53,26.53,0,0,1-5.81-2.81l-2.74,15.67H376.63l11.63-66h16.65l-1,5.5a49.51,49.51,0,0,1,8.38-5.07,21.44,21.44,0,0,1,9.15-1.93C427.68,319.72,432,322.14,434.59,327ZM419,347.32c.9-5.16.77-8.93-.42-11.25s-3.48-3.5-6.87-3.5a15.17,15.17,0,0,0-4.58.72,22.78,22.78,0,0,0-4.74,2.11l-4.71,26.72a10.54,10.54,0,0,0,2.8.82,24.68,24.68,0,0,0,3.73.23,12.65,12.65,0,0,0,9.75-3.95Q417.61,355.26,419,347.32Z"
              transform="translate(-95.16 -182.17)" style="fill:#d24a43"/>
        <path d="M420,400.32c2,0,2.65-1.05,2.8-1.92.35-1.88-1.69-1.88-2.16-1.88h-1.59l-.69,3.8Zm-3.24-6.15h4.91c1.17,0,2.87.18,3.64,1.71a4.24,4.24,0,0,1,.3,2.52,5.06,5.06,0,0,1-1.85,3.11,5.66,5.66,0,0,1-3.65,1.15H418l-1,5.45h-2.71Z"
              transform="translate(-95.16 -182.17)" style="fill:#d24a43"/>
        <polygon
                points="312.43 212 311.99 214.35 306.98 214.35 306.4 217.46 311.22 217.46 310.77 219.8 305.97 219.8 305.27 223.59 310.27 223.59 309.84 225.94 302.12 225.94 304.71 212 312.43 212"
                style="fill:#d24a43"/>
        <polygon
                points="286.2 222.1 291.42 211.96 295.78 211.96 293.06 225.98 290.16 225.98 292.47 214.82 286.73 225.98 284.37 225.98 282.75 214.79 280.86 225.98 277.91 225.98 280.66 211.96 284.93 211.96 286.2 222.1"
                style="fill:#d24a43"/>
        <path d="M371.5,327.06q5.89,7.54,3.59,20.68t-10.85,20.59c-5.69,5-12.94,7.54-21.74,7.54s-15.06-2.54-19-7.54-5.17-11.89-3.63-20.59S325,332,330.76,327s13-7.49,21.68-7.49S367.55,322.06,371.5,327.06ZM358,347.82a32.52,32.52,0,0,0,.59-7.85,12,12,0,0,0-1.28-5,6.27,6.27,0,0,0-2.85-2.75,9.49,9.49,0,0,0-4.09-.75,12.13,12.13,0,0,0-4.18.65,10.1,10.1,0,0,0-3.8,2.64,18,18,0,0,0-3.17,5,36,36,0,0,0-2.28,8.07,31.54,31.54,0,0,0-.57,7.86,12.48,12.48,0,0,0,1.26,4.79,6,6,0,0,0,2.85,2.67,10.09,10.09,0,0,0,4.28.86,11.64,11.64,0,0,0,4.21-.86,9.52,9.52,0,0,0,3.78-2.53,17.9,17.9,0,0,0,3.08-4.89A34.33,34.33,0,0,0,358,347.82Z"
              transform="translate(-95.16 -182.17)" style="fill:#d24a43"/>
        <polygon
                points="221.77 139.05 212.42 192.02 195.75 192.02 203.03 150.74 186.19 150.74 178.9 192.02 162.24 192.02 171.57 139.05 221.77 139.05"
                style="fill:#d24a43"/>
        <path d="M263.45,200.89c6.34,14.79,4,30.86-5.18,36-9.21,5.34-21.65-2.46-28-17.11s-4-30.84,5.19-36S257.09,186.26,263.45,200.89Z"
              transform="translate(-95.16 -182.17)" style="fill:#d24a43"/>
        <path d="M259,308.38l-3,16.87h-1.82c-.73-.74-1.67-1.66-2.79-2.68a30.94,30.94,0,0,0-3.91-3.13,25.3,25.3,0,0,0-5-2.56,15.58,15.58,0,0,0-2.11-.59,56.46,56.46,0,0,0,6.44-12.76c1,.22,2,.46,3,.73a39.2,39.2,0,0,1,4.95,2C256.54,307.05,258,307.76,259,308.38Z"
              transform="translate(-95.16 -182.17)" style="fill:#d24a43"/>
        <path d="M251.11,353.31l-2.94,16.61c-1.41.62-3,1.3-4.9,2.1a52.77,52.77,0,0,1-5.67,2c-2.34.65-4.53,1.17-6.53,1.54a52.82,52.82,0,0,1-8.14.49q-16.05,0-23.78-9.62c-3.34-4.14-5.14-9.37-5.47-15.69.62-.28,1.25-.52,1.85-.76a132.07,132.07,0,0,0,17.13-8.54,26.47,26.47,0,0,0,.12,9,15.91,15.91,0,0,0,3.38,7.23,13.22,13.22,0,0,0,5.53,3.85,19.07,19.07,0,0,0,6.61,1.18,21.15,21.15,0,0,0,7-1.17,33.72,33.72,0,0,0,5.86-2.55,46.79,46.79,0,0,0,4.73-2.94c1.39-1,2.6-1.91,3.63-2.7Z"
              transform="translate(-95.16 -182.17)" style="fill:#d24a43"/>
        <path d="M246.84,303.53a56.46,56.46,0,0,1-6.44,12.76,18.64,18.64,0,0,0-3.94-.47,20.48,20.48,0,0,0-14.22,5.4,25.49,25.49,0,0,0-5.67,7.29A35.23,35.23,0,0,0,213,339.36c-.13.71-.2,1.39-.3,2a132.07,132.07,0,0,1-17.13,8.54c-.6.24-1.23.48-1.85.76a50.29,50.29,0,0,1,.81-11.37q3-16.84,14.19-26.85t27.25-10a55.36,55.36,0,0,1,7.6.47C244.65,303.09,245.76,303.3,246.84,303.53Z"
              transform="translate(-95.16 -182.17)" style="fill:#fff"/>
        <path d="M236.46,315.82a18.64,18.64,0,0,1,3.94.47c-6,9-15.05,17.58-27.74,25.11.1-.65.17-1.33.3-2a35.23,35.23,0,0,1,3.61-10.85,25.49,25.49,0,0,1,5.67-7.29,20.48,20.48,0,0,1,14.22-5.4Z"
              transform="translate(-95.16 -182.17)" style="fill:#d24a43"/>
        <path d="M194.49,339.33a50.29,50.29,0,0,0-.81,11.37c-44.05,18.39-130.34,62.14-86.39,37.47l44.83-27.75c102.39-70,18.94-128.57-22.38-58.95a3.08,3.08,0,0,1-4.05,1A2.71,2.71,0,0,1,125,299c63.58-101,140.53-48.62,121.84,4.52-1.08-.23-2.19-.44-3.31-.59a55.36,55.36,0,0,0-7.6-.47q-16,0-27.25,10T194.49,339.33Z"
              transform="translate(-95.16 -182.17)" style="fill:#d24a43"/>
    </symbol>
    <symbol id="avivi" viewBox="0 0 86.64 66.42">
        <path d="M124.29,180.08s-.09.6-.15.89l-.44,2.33c-.35,1.82-.69,3.65-1.09,5.46s-.7,3.38-.92,5.1a8.25,8.25,0,0,0,.13,4.16,1.69,1.69,0,0,0,.19.32,5.31,5.31,0,0,0,7.13,1.24,5,5,0,0,0,1.75-1.67,2.89,2.89,0,0,0,.25-.67,4.14,4.14,0,0,1-1-.64,2.09,2.09,0,0,1-.42-1,4.85,4.85,0,0,1,0-1.82c.52-3.32,1.3-6.63,1.94-9.93.23-1.18.47-2.31.71-3.53.06-.3.19-1.05.19-1.05Zm5.63,17.56a6.74,6.74,0,0,1-.72.73,4.1,4.1,0,0,1-1.9.88c-1.77.37-3.44.15-4.58-1.53a6.94,6.94,0,0,1-.1-3.65c.17-1.42.43-2.82.73-4.22s.63-3,.91-4.46l.5-2.57c.1-.56.24-1.28.36-1.88l6.27-.59c0,.07-.26,1.41-.38,2-.55,2.84-1.16,5.74-1.74,8.58-.37,1.87-1.3,4.57.12,6.25a4.67,4.67,0,0,0,.53.45"
              transform="translate(-78.6 -134)" style="fill:#363636"/>
        <path d="M155.85,180.08l-.15.89-.45,2.33c-.35,1.83-.68,3.65-1.08,5.46s-.71,3.39-.93,5.1a8.36,8.36,0,0,0,.14,4.16,1.32,1.32,0,0,0,.18.33,5.3,5.3,0,0,0,7.13,1.23,4.87,4.87,0,0,0,1.75-1.67,2.89,2.89,0,0,0,.25-.67,4.14,4.14,0,0,1-1-.64,2.07,2.07,0,0,1-.43-1,5.36,5.36,0,0,1,0-1.83c.52-3.32,1.3-6.63,1.94-9.93.23-1.18.47-2.31.72-3.52.06-.3.19-1.06.19-1.06Zm5.63,17.56a9.19,9.19,0,0,1-.72.74,4.27,4.27,0,0,1-1.91.87c-1.77.37-3.44.15-4.57-1.53a6.94,6.94,0,0,1-.11-3.65c.17-1.41.44-2.82.73-4.21s.63-3,.92-4.46l.49-2.58c.1-.56.24-1.28.36-1.88l6.28-.59c0,.07-.27,1.41-.38,2-.55,2.85-1.17,5.74-1.74,8.58-.38,1.87-1.3,4.58.12,6.25a3.92,3.92,0,0,0,.53.45"
              transform="translate(-78.6 -134)" style="fill:#363636"/>
        <path d="M100.73,179.23l-3.34.35c-.94.11-1.89.19-2.83.28a1.12,1.12,0,0,1-.72-.09,8.55,8.55,0,0,0-2.74-.49,11.94,11.94,0,0,0-8.94,3.39A13.66,13.66,0,0,0,78.61,193a9.57,9.57,0,0,0,1.08,4.68,6,6,0,0,0,4.16,2.47,8.42,8.42,0,0,0,5.67-.75,3.23,3.23,0,0,0,1-.78h0a2.93,2.93,0,0,0,.36.43,4.2,4.2,0,0,0,2.18,1.12,6.38,6.38,0,0,0,5.44-1.31c.37-.34,1.24-1.27,1.24-1.27l-.42-.31a6.87,6.87,0,0,1-1-.82,2.2,2.2,0,0,1-.53-1.31,22.93,22.93,0,0,1,.63-3.94q.6-3.21,1.21-6.4c.28-1.48.65-3,.85-4.46C100.62,179.82,100.73,179.23,100.73,179.23Zm-1.15,1.18-.84,4.4c-.4,2.12-.81,4.24-1.21,6.36a25.81,25.81,0,0,0-.62,3.89v.12a.41.41,0,0,0,0,.11,3.17,3.17,0,0,0,.58,1.59,2.93,2.93,0,0,0,.4.46,2.8,2.8,0,0,0,.35.25l.12.08-.17.21a5.2,5.2,0,0,1-5.07,1.35,3.67,3.67,0,0,1-1.9-1.24l-.55-.69s-.87.75-1.11.94a4.48,4.48,0,0,1-1.18.68,6.8,6.8,0,0,1-2.83.46,6.39,6.39,0,0,1-4.7-1.71c-1.09-1.21-1.23-3.1-1.29-4.65a12.61,12.61,0,0,1,3.59-10,11,11,0,0,1,9.14-2.68,8.76,8.76,0,0,0,2.35.47l2.66-.27,1.37-.14.91-.08A.34.34,0,0,0,99.58,180.41Z"
              transform="translate(-78.6 -134)" style="fill:#363636"/>
        <path d="M91,181.18c-1.85-.16-3,1-3.61,2.62a27.7,27.7,0,0,0-1.34,5.25,23.94,23.94,0,0,0-.52,6.37c.11,1.32.54,3.06,2.23,2.86,2.18-.27,3.06-2.75,3.39-4.6.65-3.59,1.45-7.17,2-10.78C93.25,181.83,91.93,181.25,91,181.18Zm1.15,1.61c0,.25-.09.51-.13.76l-1,5.58-.77,4.29c-.23,1.28-1,4.18-2.82,3.93-1.26-.17-1-2.94-1-3.73a30.89,30.89,0,0,1,.77-5.49,21.74,21.74,0,0,1,1.14-4.2,2.89,2.89,0,0,1,1.44-1.68,2.74,2.74,0,0,1,1.3-.11,1.93,1.93,0,0,1,.53.17c.14.07.46.29.55.35S92.17,182.75,92.16,182.79Z"
              transform="translate(-78.6 -134)" style="fill:#363636"/>
        <path d="M153,180.38a4,4,0,0,0-2.19-1,5,5,0,0,0-4.44,1.45,2.52,2.52,0,0,0-.21.25,1.15,1.15,0,0,1,.09.29,13.4,13.4,0,0,1-.22,5.31,25.51,25.51,0,0,1-1.52,5.21,18.76,18.76,0,0,1-1.22,2.46,9.84,9.84,0,0,1-.7,1,3,3,0,0,1-.25.28c0-.36,0-.86.06-1.19l.06-1.28q0-1.41.06-2.82c0-1.77,0-3.54-.19-5.3a6.94,6.94,0,0,0-1.46-4.25,4.73,4.73,0,0,0-4-1.49,7.41,7.41,0,0,0-1.87.27,4.38,4.38,0,0,0-1.81,1.08l-.26.3c.15.28.37.69.53,1a7.91,7.91,0,0,1,.71,2c.31,1.6.44,3.25.61,4.87.26,2.58.34,5.18.43,7.77,0,.48,0,1,.05,1.45s0,1.82,0,1.82.87.21,1.41.3a9.75,9.75,0,0,0,4.77-.24c3.16-1.09,5.52-3.93,7.45-6.52a27.89,27.89,0,0,0,3.2-5.42,14.21,14.21,0,0,0,1.51-5.84A2.4,2.4,0,0,0,153,180.38Zm-.74,4.51a27.06,27.06,0,0,1-5.16,9.33c-1.93,2.35-4.41,4.91-7.63,5.15a10.58,10.58,0,0,1-2.51-.13,6.18,6.18,0,0,1-.69-.18s0-1.24,0-1.61c-.05-1.52-.11-3-.18-4.54-.11-2.33-.31-4.63-.6-6.94a13.82,13.82,0,0,0-.79-3.83c-.08-.19-.58-1.06-.58-1.06a4.23,4.23,0,0,1,1.14-.58,5,5,0,0,1,.93-.2c1.68-.21,3.28,0,4.33,1.48.91,1.27.92,3.08,1,4.58s.11,3.25.08,4.88c0,.78,0,1.56-.07,2.33s-.1,1.79-.14,2.65a.71.71,0,0,0,.75.75c.39,0,1-.72,1.28-1.1a17.8,17.8,0,0,0,2.42-4.71,27,27,0,0,0,1.33-5.4,14,14,0,0,0,.1-4.47,4.18,4.18,0,0,1,4.15-.82,1.71,1.71,0,0,1,1.31,1.8A9.64,9.64,0,0,1,152.25,184.89Z"
              transform="translate(-78.6 -134)" style="fill:#363636"/>
        <path d="M121.57,180.38a4,4,0,0,0-2.19-1,5,5,0,0,0-4.44,1.45,2.52,2.52,0,0,0-.21.25c0,.11.07.22.09.29a13.59,13.59,0,0,1-.23,5.31,25.48,25.48,0,0,1-1.51,5.21,18.76,18.76,0,0,1-1.22,2.46c-.22.35-.45.7-.7,1a3,3,0,0,1-.25.28c0-.36,0-.86.06-1.19s0-.85,0-1.28c0-.94.06-1.88.07-2.82,0-1.77,0-3.54-.2-5.3a7,7,0,0,0-1.45-4.25,4.74,4.74,0,0,0-4-1.49,7.28,7.28,0,0,0-1.87.27,4.41,4.41,0,0,0-1.82,1.08l-.26.3.54,1a8.28,8.28,0,0,1,.7,2c.31,1.6.45,3.25.61,4.87.26,2.58.34,5.18.43,7.77,0,.48,0,1,0,1.45s0,1.82,0,1.82.86.21,1.4.3a9.75,9.75,0,0,0,4.77-.24c3.17-1.09,5.53-3.93,7.46-6.52a28.35,28.35,0,0,0,3.19-5.42,14.07,14.07,0,0,0,1.52-5.84A2.4,2.4,0,0,0,121.57,180.38Zm-.75,4.51a26.87,26.87,0,0,1-5.15,9.33c-1.93,2.35-4.42,4.91-7.63,5.15a10.64,10.64,0,0,1-2.52-.13,6.93,6.93,0,0,1-.69-.18s0-1.24,0-1.61c0-1.52-.1-3-.18-4.54-.11-2.33-.31-4.63-.59-6.94a14.19,14.19,0,0,0-.79-3.83c-.08-.19-.58-1.06-.58-1.06a4.09,4.09,0,0,1,1.14-.58,4.81,4.81,0,0,1,.93-.2c1.68-.21,3.27,0,4.32,1.48.91,1.27.92,3.08,1,4.58s.11,3.25.08,4.88c0,.78,0,1.56-.07,2.33s-.09,1.79-.14,2.65a.72.72,0,0,0,.76.75c.38,0,1-.72,1.27-1.1a17.51,17.51,0,0,0,2.42-4.71,27,27,0,0,0,1.34-5.4,14,14,0,0,0,.09-4.47,4.19,4.19,0,0,1,4.16-.82,1.72,1.72,0,0,1,1.3,1.8A9.27,9.27,0,0,1,120.82,184.89Z"
              transform="translate(-78.6 -134)" style="fill:#363636"/>
        <path d="M165.23,174.71c-.15-2.22-2.48-2.93-4.4-2.86-2.09.07-4.22,1.09-4.37,3.37v.11a2.58,2.58,0,0,0,1.32,2.38,5.93,5.93,0,0,0,3.46.67C163.33,178.21,165.39,177.06,165.23,174.71Zm-4,2.72a5.66,5.66,0,0,1-2.48-.3,1.83,1.83,0,0,1-1.35-1.8c.06-1.74,1.76-2.44,3.29-2.53,1.35-.07,3.43.23,3.58,1.91S162.81,177.3,161.24,177.43Z"
              transform="translate(-78.6 -134)" style="fill:#363636"/>
        <path d="M131.11,176.9c-1.39-7.24,1.1-11.56,4.5-14.42,3-2.54,6.83-4.31,8.61-7.4.68,16.62-6,16.66-13.11,21.82"
              transform="translate(-78.6 -134)" style="fill:#287d4c;fill-rule:evenodd"/>
        <path d="M125.25,176.91c.71-13-1.87-20.45-6.13-25.37-6.69-7.74-17.32-9.58-22.67-16.14-.49,10.72,1.45,19.53,4.44,25.76C106.73,173.32,117.33,177.48,125.25,176.91Z"
              transform="translate(-78.6 -134)" style="fill:#fd0807;fill-rule:evenodd"/>
        <path d="M143.25,155.24c0-.56-.14-2.07-.14-2.07s-1,1.23-1.37,1.64a18.3,18.3,0,0,1-1.62,1.79c-2.41,2.26-5.38,3.84-7.62,6.29a12.32,12.32,0,0,0-2.86,5.12,17.81,17.81,0,0,0,0,7.89c0,.17.15.64.15.64l.58-.42c2.55-1.76,5.39-3,7.86-4.88a12.6,12.6,0,0,0,4.57-8A36,36,0,0,0,143.25,155.24Zm-1,3.78a30.69,30.69,0,0,1-.33,3.46,12.06,12.06,0,0,1-4,7.75c-2.29,1.88-5.07,3.08-7.53,4.73-.59-3.72-.3-7.56,2.1-10.63,1.91-2.44,4.62-4,7-6a21.36,21.36,0,0,0,1.66-1.48c.24-.24.48-.49.7-.75l.42-.46a2.25,2.25,0,0,1,0,.26c0,.32,0,.63,0,.95C142.32,157.6,142.3,158.31,142.27,159Z"
              transform="translate(-78.6 -134)" style="fill:#363636"/>
        <path d="M106.62,140.75A31.17,31.17,0,0,1,100,136.4c-.44-.4-1-.92-1.47-1.32s-1-1.08-1-1.08l-.08,3.54a65,65,0,0,0,.47,8.93c1,8.42,4.07,16.94,10.39,22.87a24.84,24.84,0,0,0,16.32,6.9c.62,0,1.25,0,1.88-.05l.44,0s0-.27,0-.43c.45-8.61-.32-18.09-6-25.05C117.22,146,111.82,143.49,106.62,140.75Zm19.43,34.52a23.34,23.34,0,0,1-15.16-5c-6.28-4.83-9.81-12.28-11.38-19.9a56.17,56.17,0,0,1-1-7.85c-.08-1.45-.12-2.9-.11-4.34,0-.4,0-.8,0-1.21,0-.13,0-.76,0-.76l.28.26a27,27,0,0,0,6.21,4.42c4.84,2.66,10,4.81,14,8.81,5.64,5.72,7.19,13.89,7.25,21.66C126.15,172.68,126.11,174,126.05,175.27Z"
              transform="translate(-78.6 -134)" style="fill:#363636"/>
    </symbol>
    <symbol id="plus" viewBox="0 0 31.06 31.06">
        <path d="M15.53,0A15.53,15.53,0,1,0,31.06,15.53,15.55,15.55,0,0,0,15.53,0Zm0,29.28A13.76,13.76,0,1,1,29.28,15.53,13.77,13.77,0,0,1,15.53,29.28Z"
              transform="translate(0 0)"/>
        <path d="M21.65,14.64H16.42V9.41a.89.89,0,1,0-1.78,0v5.23H9.41a.89.89,0,0,0,0,1.78h5.23v5.23a.89.89,0,0,0,1.78,0V16.42h5.23a.89.89,0,1,0,0-1.78Z"
              transform="translate(0 0)"/>
    </symbol>
    <symbol id="play" x="0px" y="0px" viewBox="0 0 314.068 314.068" style="enable-background:new 0 0 314.068 314.068;"
	 xml:space="preserve">
        <g>
	      <g id="_x33_56._Play">
                <g>
	        		<path d="M293.002,78.53C249.646,3.435,153.618-22.296,78.529,21.068C3.434,64.418-22.298,160.442,21.066,235.534
				c43.35,75.095,139.375,100.83,214.465,57.47C310.627,249.639,336.371,153.62,293.002,78.53z M219.834,265.801
				c-60.067,34.692-136.894,14.106-171.576-45.973C13.568,159.761,34.161,82.935,94.23,48.26
				c60.071-34.69,136.894-14.106,171.578,45.971C300.493,154.307,279.906,231.117,219.834,265.801z M213.555,150.652l-82.214-47.949
				c-7.492-4.374-13.535-0.877-13.493,7.789l0.421,95.174c0.038,8.664,6.155,12.191,13.669,7.851l81.585-47.103
				C221.029,162.082,221.045,155.026,213.555,150.652z"/>
		       </g>
        	</g>
         </g>
    </symbol>
    <symbol id="instagram" viewBox="0 0 551.03 551.03">
        <path d="M386.88,0H164.16C73.64,0,0,73.64,0,164.16V386.88C0,477.39,73.64,551,164.16,551H386.88C477.39,551,551,477.39,551,386.88V164.16C551,73.64,477.39,0,386.88,0ZM495.6,386.88A108.73,108.73,0,0,1,386.88,495.6H164.16A108.73,108.73,0,0,1,55.43,386.88V164.16A108.73,108.73,0,0,1,164.16,55.43H386.88A108.73,108.73,0,0,1,495.6,164.16V386.88Z"/>
        <path d="M275.52,133C196.93,133,133,196.93,133,275.52S196.93,418,275.52,418,418,354.1,418,275.52,354.1,133,275.52,133Zm0,229.6a87.09,87.09,0,1,1,87.08-87.08A87.09,87.09,0,0,1,275.52,362.6Z"/>
        <circle cx="418.31" cy="134.07" r="34.15"/>
    </symbol>
    <symbol id="facebook" viewBox="0 0 26.77 51.52">
        <path d="M38.9,13.17h4.85V5a65.27,65.27,0,0,0-7.07-.36c-7,0-11.79,4.27-11.79,12.11v6.76H17v9.17h7.91V56.13h9.47V32.65h7.89l1.19-9.17H34.36V17.63C34.36,15,35.09,13.17,38.9,13.17Z"
              transform="translate(-16.98 -4.61)"/>
    </symbol>
    <symbol id="youtube" viewBox="0 0 461 326.22">
        <path d="M365.26,67.39H95.74A95.75,95.75,0,0,0,0,163.14V297.86a95.75,95.75,0,0,0,95.74,95.75H365.26A95.74,95.74,0,0,0,461,297.86V163.14A95.74,95.74,0,0,0,365.26,67.39ZM300.51,237.06,174.45,297.18a5.06,5.06,0,0,1-7.24-4.57v-124a5.06,5.06,0,0,1,7.35-4.52L300.62,228A5.07,5.07,0,0,1,300.51,237.06Z"
              transform="translate(0 -67.39)"/>
    </symbol>
    <symbol id="phone" viewBox="0 0 578.106 578.106">
        <g>
            <g>
                <path d="M577.83,456.128c1.225,9.385-1.635,17.545-8.568,24.48l-81.396,80.781
			c-3.672,4.08-8.465,7.551-14.381,10.404c-5.916,2.857-11.729,4.693-17.439,5.508c-0.408,0-1.635,0.105-3.676,0.309
			c-2.037,0.203-4.689,0.307-7.953,0.307c-7.754,0-20.301-1.326-37.641-3.979s-38.555-9.182-63.645-19.584
			c-25.096-10.404-53.553-26.012-85.376-46.818c-31.823-20.805-65.688-49.367-101.592-85.68
			c-28.56-28.152-52.224-55.08-70.992-80.783c-18.768-25.705-33.864-49.471-45.288-71.299
			c-11.425-21.828-19.993-41.616-25.705-59.364S4.59,177.362,2.55,164.51s-2.856-22.95-2.448-30.294
			c0.408-7.344,0.612-11.424,0.612-12.24c0.816-5.712,2.652-11.526,5.508-17.442s6.324-10.71,10.404-14.382L98.022,8.756
			c5.712-5.712,12.24-8.568,19.584-8.568c5.304,0,9.996,1.53,14.076,4.59s7.548,6.834,10.404,11.322l65.484,124.236
			c3.672,6.528,4.692,13.668,3.06,21.42c-1.632,7.752-5.1,14.28-10.404,19.584l-29.988,29.988c-0.816,0.816-1.53,2.142-2.142,3.978
			s-0.918,3.366-0.918,4.59c1.632,8.568,5.304,18.36,11.016,29.376c4.896,9.792,12.444,21.726,22.644,35.802
			s24.684,30.293,43.452,48.653c18.36,18.77,34.68,33.354,48.96,43.76c14.277,10.4,26.215,18.053,35.803,22.949
			c9.588,4.896,16.932,7.854,22.031,8.871l7.648,1.531c0.816,0,2.145-0.307,3.979-0.918c1.836-0.613,3.162-1.326,3.979-2.143
			l34.883-35.496c7.348-6.527,15.912-9.791,25.705-9.791c6.938,0,12.443,1.223,16.523,3.672h0.611l118.115,69.768
			C571.098,441.238,576.197,447.968,577.83,456.128z"/>
            </g>
        </g>
    </symbol>
    <symbol id="logo-white" viewBox="0 0 4744.2 3211.3">
        <path d="M7810,5457.92c-1.47-.86-42.66,4.9-51.58,7.77l-45.86-105.94-39.15-13.2-69.19-154.13,4.9.18s12.58,6.15,17.34,7.47,15.27-12.52,17.05-17.28,73.23-54.8,76.71-55.22c3.26-.39,26.32,2.37,32.1-.84,1.63,1.15,1.8-5.08-.1-6.29-.76-1.58-17.23-27-14.9-28.4,4.38-2.59,15.72-10.35,20-10.32,1.5,0,32.15,16.93,34.23,16.24.49-.16,8.76-9.41,8.3-11.25-.84-3.48-22.47-21.83-22.46-24.44s-1.65-14.34-4.67-18.27a50.57,50.57,0,0,1-8.17-18.28c-1.27-6.53-9.93-12.65-8.61-17s3.1-12.14-.77-20-12.95-14.4-21.64-14.44-19.07-7.05-26.44-8.39-17,1.22-25.64-.13-34.14-36.22-34.14-36.22l-11.28.37s-157.12-242.51-177.88-263.46-62.9-55.7-87.49-89.06-67.68-147.58-90.34-176.37-36.22-52.31-46-59.52,4-11.71,6-17.56.73-15.64,11.85-24.7,28.14-22.67,49-20.61,42.32,4.12,51.5-6.25,4.7-28.65,8-34.5,10.47-11.67,10.52-20.14,2.05-18.89,7.94-22.12,5.28-17.56,1.43-26,5.26-9.09,13.08-12.31,14.41-11.66,6-23.43-16.12-35.26-16-52.86,1.45-31.92,1.45-31.92,42.43-16.72,50.93-18.63,29.35-5.72,28.06-10.94-24.6-30.75-47.28-57.58-79.7-85.75-158.5-94.61-175.41,29.09-180,38.19-1.43,26.7-11.26,37.08-12.53,29.26-13.89,41.63,1.83,24.77-8,41-10.6,34.47-4.12,44.28,16.81,26.14,21.36,26.17,18.91-2.51,22.09,12.49,9.61,32,3.07,37.81-7.9,18.2-15.09,20.12-46.28,6.28-59.4,22.51c-8.13,10.05-22.28,21.09-45.87,34.31-25,3.41-68.94-26-80.22-34.23-29.55-1.92-46.09,23.27-66.87,16.48-2.77-19.44,8.67-27,6.15-46.13-17.76-32.63-68.43,1-91.13-22.78-16.67,4.63-30.91,22.59-51.35,27.49-23.15,5.57-50.77-1.93-60.09,22-1,21.73,9.55,29.5,12.54,46.5-13.39,12.09-22.71-3.5-37.55-2.76-10.45,7.07-10.65,22.74-22.21,28.92-7-1.51-2.51-16.76-11.81-15.51-21.41,10.59-35.5,27.32-52,42-.8,7.75,4.28,8.49,3.53,16.28-6.58,20.17-29.26,30.62-41.09,49.32-7.24,11.32-12.94,28.7-20.91,43.28-12.59,23.1-27.11,38.92-22.56,70.4-26.58,29.92,14.58,97.45,11.42,125.31-1,9.22-9.38,16.09-10.23,23.69-6.15,53.15,25.77,105.06,58.23,126.91-26.9,60.32-35.14,111.54-35.14,111.54l11.67,11.79s-13.26,46.84-8.25,86.61,34.78,79,80.95,98.14,95.55,44.79,102,53.29,56.55,71.3,67.74,93.95,38.81,99.44,40.08,103.37,4.43,25.43,4.43,27.38a9.65,9.65,0,0,0,.74,2c-8.33,3.5-12.31,132.78,35.19,153.77,2.29,10.89-63.53,53.12-93.43,79.63-160-157.58-404.18-213.76-624.8-124-296.44,120.63-439.31,462.25-316.87,757.94,122.56,296,462,436.16,757.62,313.08,295.26-122.92,434.95-461.92,312-757.18-4.14-9.94-12.65-28-12.65-28l-.21.09-.61-2.06-145.52,62.89-21.38,8.9s.06.11.14.28L6336.59,5926.7c-4.26-9-13.05-19.25-24.77-27a66.45,66.45,0,0,0-63.82-7.22,62.65,62.65,0,0,0-7.2,3.59c-20.26,10.68-38.13,31.64-36,64.53a69.26,69.26,0,0,0,1.16,9.09l1.17,5.13a70.17,70.17,0,0,0,2.31,6.92l2.1,4.81c7.79,19.47,37.13,34.38,39.52,35.22.06.41,11.57,4.58,11.57,4.58l2.58,5.87c2.6,2.94,7.85,6,18.42,6.79,6.69.47,11.06,1,13.9,1.48l2.8,4.25,6,18.29c2.57,14.2,5.64,31.08,6.34,34.16,1.25,5.49,1,12,7.3,8.52,4-2.18,13.19-6.66,17.32-9.46l0-7.1c-.88-6.78-1.32-19.07-4-20.34-2.47-1.17-7.79,1.69-10.87.42l-2.23-3.38a7.8,7.8,0,0,1-.1-.89c-.35-5.87-3.08-35.16-4.78-53.29q1.91-1.44,3.72-3l11.8-13.29c2.74-4,6.27-9,7.65-15.13l2.38-5.69a68.57,68.57,0,0,0,2.36-14.44l326-107.66c63.43,196.76-35.14,412.72-231.16,491.15-199,79.62-427.69-14.62-512.82-211.32-88.33-204.09,7.56-440.32,212.18-525.52,153.94-64.09,325.94-22.41,436.63,89.46L6725.76,5633h0L7008,5516.3h56.09a438.23,438.23,0,0,1,8.45-46.21c2.59-10.5,10.28-57.69,10.78-61l339.49-118,86.14.43-194.46,252a406.08,406.08,0,0,1,125.39-37.71l142.18-184.22c7.43,16.44,13.15,28,15.36,29.71a44.13,44.13,0,0,1,12.79,17.53c-2.78,3.46-2.63,7.14,2.27,11,23.37,18.36,23.77,40.49,34.54,60.25s22.9,11.89,30.59,24.71c2,3.42,26.05,51.78,45.23,95.94l106.27-42.48C7828.83,5502,7816.92,5462.09,7810,5457.92Zm-613.59-149.44c18.28-14.68,51.23-41.74,64.48-56.37,18.78-20.76,60.85-90.92,49.77-135.28s-30-75.74-72.49-96.79-77-61.21-109.08-75.27-122.2-57.94-129.1-69.27,27.16-44.17,39.37-56.27,38.52-58,40.32-70.17,16.83-64.21,24.67-67.64,18.06,35.71,33.56,61.85,39.6,74,49.94,89.73,40.55,56.68,64.75,82,152.14,147.59,165.12,162.42c.35.42,41.51,48.81,49.24,55.84,8.64,7.86,19.77,40.06,34.52,44.48,4.63,1.39,13.16,3.23,22.63,5.1,1.23,3,2.62,6.49,4.18,10.33ZM7588,5067.83c-2.62,1.73-6.09-7.68-9.08-9.79-17.84-12.56-35.38.45-49.93-.28s-35.53-21-38.75-27.56-21-6.4-26.22-12.51-88.69-154.21-113.63-209.07-61.21-93.25-90.55-131.63-32.23-68.79-29.19-69.64,32.8,43.16,50.93,66.28,55.27,63.69,74.29,82.9,31.91,44,44.86,62.77,102.95,87.39,127.6,108.8,47.57,41.08,51.46,46.74,4.72,10,2,12.17,2.22,7.83,5.67,10.89,19.41,26.59,20.26,33.11,19,17,19,20.94S7590.59,5066.11,7588,5067.83Z"
              transform="translate(-5711.4 -3865.98)" style="fill:#fff"/>
        <path d="M9378.9,6778.42q-21.31,0-35,8.69t-13.66,26.29q0,17.6,13.66,26.91t58.16,20.07q44.49,10.77,67,30.22t22.56,57.33q0,37.88-28.56,61.47T9388.22,7033q-67.89,0-120.46-46.77l30.63-36.84q43.88,38.09,91.07,38.08,23.6,0,37.46-10.14t13.87-26.91q0-16.76-13-26.08t-44.91-17q-31.89-7.65-48.43-14.07a109.1,109.1,0,0,1-29.39-16.77q-25.68-19.44-25.67-59.6t29.19-61.89q29.17-21.72,72.23-21.73a173.15,173.15,0,0,1,55,9.11q27.32,9.1,47.19,25.66l-26.08,36.84q-12.84-11.58-34.77-19A134.19,134.19,0,0,0,9378.9,6778.42Z"
              transform="translate(-5711.4 -3865.98)" style="fill:#fff"/>
        <path d="M8660.57,7031.34q33.93,0,53.81-23.18t19.87-62.92v-11.18q-32.7,27.73-68.3,27.74-53,0-83.61-31.46T8551.7,6836v-95.62h48.85v93.55q0,82,65.4,82,28.14,0,46.15-16.77t22.15-45.74V6739.93h48.85v207.38q0,62.5-34.36,96.24t-88.17,33.73q-39.33,0-69.13-18.62T8548,7004.85l44.7-21.12q8.28,22.77,25.67,35.19T8660.57,7031.34Z"
              transform="translate(-5711.4 -3865.98)" style="fill:#fff"/>
        <path d="M7850.13,7029.68v-166.4q0-63.73,32.29-96.86t90-33.12q57.73,0,89.82,32.7t32.08,94.79v168.89h-49.26v-71.61H7899v71.61ZM7899,6861.21v51.33h146.12v-49.26q0-40.15-19.45-62.09t-53.81-21.94q-34.36,0-53.61,21.11T7899,6861.21Z"
              transform="translate(-5711.4 -3865.98)" style="fill:#fff"/>
        <path d="M7308.79,6740.34h47.61v178.41q0,54.22-26.7,84.23t-76.58,30q-49.89,0-77.2-38.91-28.56,38.91-77.61,38.91t-75.75-30q-26.7-30-26.7-84.23V6740.34h47.6v178.41q0,32.28,14.28,49.88t40.15,17.59q25.88,0,39.53-17.59t13.66-49.88l.42-178.41h48.84l.42,178.41q0,32.28,13.66,49.88t39.53,17.59q25.86,0,40.36-17.59t14.48-49.88Z"
              transform="translate(-5711.4 -3865.98)" style="fill:#fff"/>
        <path d="M9803,6055.7v488.4H9609.69V5625.67H9803v167.46q46.6-84.57,128.61-132.93t177-48.34q155.39,0,251.19,95t95.81,274.49v562.8h-193.35V6040q0-253.77-210.62-253.78c-66.76,0-124.89,31-174.36,75.26S9803,5970.54,9803,6055.7Z"
              transform="translate(-5711.4 -3865.98)" style="fill:#28cc00"/>
        <path d="M9051.48,5611.86q188.15,0,312.47,104.45t126,271.9l1.72,3.45-669.82,281.4q89.73,110.49,244.28,110.48t254.63-120.84l113.94,126q-164,169.21-386.7,169.19-195.11,0-334.92-129.48t-139.83-341.82q0-146.71,72.51-258.09t179.54-164A505.8,505.8,0,0,1,9051.48,5611.86Zm-291.75,478.2q0,22.47,1.72,32.8l509.28-219.24q-58.71-113.94-208.89-113.94-113.94,0-208,79.41T8759.73,6090.06Z"
              transform="translate(-5711.4 -3865.98)" style="fill:#28cc00"/>
        <path d="M8017.57,5611.86q188.15,0,312.47,104.45t126,271.9l1.73,3.45L7788,6273.06q89.74,110.49,244.28,110.48t254.64-120.84l113.94,126q-164,169.21-386.71,169.19-195.1,0-334.91-129.48t-139.84-341.82q0-146.71,72.51-258.09t179.54-164A505.81,505.81,0,0,1,8017.57,5611.86Zm-291.76,478.2q0,22.47,1.73,32.8l509.27-219.24q-58.71-113.94-208.89-113.94-113.94,0-208,79.41T7725.81,6090.06Z"
              transform="translate(-5711.4 -3865.98)" style="fill:#28cc00"/>
        <path d="M7477.51,5806.94q-143.31,0-215.79,93.23t-72.51,250.32V6544.1H6995.86V5625.67h193.35v184.72q46.6-86.3,126.89-141.56t170-57l1.73,195.08Z"
              transform="translate(-5711.4 -3865.98)" style="fill:#28cc00"/>
    </symbol>
    <symbol id="marker" viewBox="0 0 382.6 554">
<style type="text/css">
	.st0{fill:#E87708;}
</style>
<g id="австрия">
	<path class="st0" d="M191.2,0C85.8,0,0,85.8,0,191.2c0,12,1.1,24.1,3.4,35.9c0.1,0.7,0.5,2.8,1.3,6.4c2.9,12.9,7.2,25.6,12.8,37.7
		C38.1,319.7,112.8,438,182.8,551c1.7,2.7,5.5,3,8.5,3s6.8-0.3,8.5-3c72-115,144.7-231.3,165.3-279.8c5.6-12.1,9.9-24.7,12.8-37.7
		c0.8-3.6,1.2-5.7,1.3-6.4c2.2-11.8,3.4-23.9,3.4-35.9C382.4,85.8,296.6,0,191.2,0z"/>
	<g>
		<defs>
			<path id="SVGID_1_" d="M191.2,85c-59.7,0-108.3,48.6-108.3,108.3s48.5,108.3,108.3,108.3c59.8,0,108.3-48.6,108.3-108.3
				S250.9,85,191.2,85z"/>
		</defs>
		<clipPath id="SVGID_2_">
			<use xlink:href="#SVGID_1_"  style="overflow:visible;"/>
		</clipPath>
		<g style="clip-path:url(#SVGID_2_);">

				<image style="overflow:visible;" width="1280" height="853" id="Layer_0_16_" xlink:href="D603DD6F3EEB6F99.png"  transform="matrix(0.2597 0 0 0.2597 25.1011 82.544)">
			</image>
		</g>
		<use xlink:href="#SVGID_1_"  style="overflow:visible;fill:none;stroke:#FFFFFF;stroke-miterlimit:10;"/>
	</g>
</g>
</symbol>

</svg>


